<?xml version="1.0" encoding="UTF-8" standalone="no"?>
<graphml xmlns="http://graphml.graphdrawing.org/xmlns" xmlns:java="http://www.yworks.com/xml/yfiles-common/1.0/java" xmlns:sys="http://www.yworks.com/xml/yfiles-common/markup/primitives/2.0" xmlns:x="http://www.yworks.com/xml/yfiles-common/markup/2.0" xmlns:xsi="http://www.w3.org/2001/XMLSchema-instance" xmlns:y="http://www.yworks.com/xml/graphml" xmlns:yed="http://www.yworks.com/xml/yed/3" xsi:schemaLocation="http://graphml.graphdrawing.org/xmlns http://www.yworks.com/xml/schema/graphml/1.1/ygraphml.xsd">
  <!--Created by yEd 3.19.1.1-->
  <key attr.name="Beschreibung" attr.type="string" for="graph" id="d0"/>
  <key for="port" id="d1" yfiles.type="portgraphics"/>
  <key for="port" id="d2" yfiles.type="portgeometry"/>
  <key for="port" id="d3" yfiles.type="portuserdata"/>
  <key attr.name="url" attr.type="string" for="node" id="d4"/>
  <key attr.name="description" attr.type="string" for="node" id="d5"/>
  <key for="node" id="d6" yfiles.type="nodegraphics"/>
  <key for="graphml" id="d7" yfiles.type="resources"/>
  <key attr.name="url" attr.type="string" for="edge" id="d8"/>
  <key attr.name="description" attr.type="string" for="edge" id="d9"/>
  <key for="edge" id="d10" yfiles.type="edgegraphics"/>
  <graph edgedefault="directed" id="G">
    <data key="d0" xml:space="preserve"/>
    <node id="n0">
      <data key="d4" xml:space="preserve"/>
      <data key="d6">
        <y:UMLClassNode>
          <y:Geometry height="95.0" width="188.0" x="-2119.1133851189834" y="380.5"/>
          <y:Fill color="#FFCC00" transparent="false"/>
          <y:BorderStyle color="#000000" type="line" width="1.0"/>
          <y:NodeLabel alignment="center" autoSizePolicy="content" fontFamily="Dialog" fontSize="13" fontStyle="bold" hasBackgroundColor="false" hasLineColor="false" height="19.92626953125" horizontalTextPosition="center" iconTextGap="4" modelName="custom" textColor="#000000" verticalTextPosition="bottom" visible="true" width="89.2236328125" x="49.38818359375" xml:space="preserve" y="3.0">InputManager<y:LabelModel><y:SmartNodeLabelModel distance="4.0"/></y:LabelModel><y:ModelParameter><y:SmartNodeLabelModelParameter labelRatioX="0.0" labelRatioY="0.0" nodeRatioX="0.0" nodeRatioY="0.0" offsetX="0.0" offsetY="0.0" upX="0.0" upY="-1.0"/></y:ModelParameter></y:NodeLabel>
          <y:UML clipContent="true" constraint="" hasDetailsColor="false" omitDetails="false" stereotype="" use3DEffect="true">
            <y:AttributeLabel xml:space="preserve"/>
            <y:MethodLabel xml:space="preserve"/>
          </y:UML>
        </y:UMLClassNode>
      </data>
    </node>
    <node id="n1" yfiles.foldertype="group">
      <data key="d6">
        <y:ProxyAutoBoundsNode>
          <y:Realizers active="0">
            <y:GenericGroupNode configuration="com.yworks.bpmn.Artifact.withShadow">
              <y:Geometry height="235.13013355079082" width="617.7207645694195" x="559.9999999999998" y="-174.1889056646755"/>
              <y:Fill color="#FFFFFFE6" transparent="false"/>
              <y:BorderStyle color="#000000" type="dashed_dotted" width="1.0"/>
              <y:NodeLabel alignment="center" autoSizePolicy="content" fontFamily="Dialog" fontSize="30" fontStyle="plain" hasBackgroundColor="false" hasLineColor="false" height="40.7529296875" horizontalTextPosition="center" iconTextGap="4" modelName="custom" textColor="#000000" verticalTextPosition="bottom" visible="true" width="80.728515625" x="268.4961244722098" xml:space="preserve" y="190.37720386329082">Audio<y:LabelModel><y:SmartNodeLabelModel distance="4.0"/></y:LabelModel><y:ModelParameter><y:SmartNodeLabelModelParameter labelRatioX="0.0" labelRatioY="0.5" nodeRatioX="0.0" nodeRatioY="0.5" offsetX="0.0" offsetY="-4.0" upX="0.0" upY="-1.0"/></y:ModelParameter></y:NodeLabel>
              <y:StyleProperties>
                <y:Property class="java.awt.Color" name="com.yworks.bpmn.icon.line.color" value="#000000"/>
                <y:Property class="java.awt.Color" name="com.yworks.bpmn.icon.fill2" value="#d4d4d4cc"/>
                <y:Property class="java.awt.Color" name="com.yworks.bpmn.icon.fill" value="#ffffffe6"/>
                <y:Property class="com.yworks.yfiles.bpmn.view.BPMNTypeEnum" name="com.yworks.bpmn.type" value="ARTIFACT_TYPE_GROUP"/>
              </y:StyleProperties>
              <y:State autoResize="true" closed="false" closedHeight="80.0" closedWidth="100.0"/>
              <y:Insets bottom="15" bottomF="15.0" left="15" leftF="15.0" right="15" rightF="15.0" top="15" topF="15.0"/>
              <y:BorderInsets bottom="33" bottomF="32.85690263620387" left="0" leftF="0.0" right="0" rightF="0.0" top="30" topF="29.988352179964835"/>
            </y:GenericGroupNode>
            <y:GroupNode>
              <y:Geometry height="50.0" width="50.0" x="-25.0" y="-25.0"/>
              <y:Fill color="#F5F5F5" transparent="false"/>
              <y:BorderStyle color="#000000" type="dashed" width="1.0"/>
              <y:NodeLabel alignment="right" autoSizePolicy="node_width" backgroundColor="#EBEBEB" borderDistance="0.0" fontFamily="Dialog" fontSize="15" fontStyle="plain" hasLineColor="false" height="22.37646484375" horizontalTextPosition="center" iconTextGap="4" modelName="internal" modelPosition="t" textColor="#000000" verticalTextPosition="bottom" visible="true" width="59.02685546875" x="-4.513427734375" xml:space="preserve" y="0.0">Folder 1</y:NodeLabel>
              <y:Shape type="roundrectangle"/>
              <y:State closed="true" closedHeight="50.0" closedWidth="50.0" innerGraphDisplayEnabled="false"/>
              <y:Insets bottom="5" bottomF="5.0" left="5" leftF="5.0" right="5" rightF="5.0" top="5" topF="5.0"/>
              <y:BorderInsets bottom="0" bottomF="0.0" left="0" leftF="0.0" right="0" rightF="0.0" top="0" topF="0.0"/>
            </y:GroupNode>
          </y:Realizers>
        </y:ProxyAutoBoundsNode>
      </data>
      <graph edgedefault="directed" id="n1:">
        <node id="n1::n0">
          <data key="d4" xml:space="preserve"/>
          <data key="d6">
            <y:UMLClassNode>
              <y:Geometry height="142.2848787346221" width="179.542275599297" x="574.9999999999998" y="-129.20055348471067"/>
              <y:Fill color="#FFCC00" transparent="false"/>
              <y:BorderStyle color="#000000" type="line" width="1.0"/>
              <y:NodeLabel alignment="center" autoSizePolicy="content" fontFamily="Dialog" fontSize="13" fontStyle="bold" hasBackgroundColor="false" hasLineColor="false" height="19.92626953125" horizontalTextPosition="center" iconTextGap="4" modelName="custom" textColor="#000000" verticalTextPosition="bottom" visible="true" width="94.28271484375" x="42.6297803777735" xml:space="preserve" y="3.0">AudioManager<y:LabelModel><y:SmartNodeLabelModel distance="4.0"/></y:LabelModel><y:ModelParameter><y:SmartNodeLabelModelParameter labelRatioX="0.0" labelRatioY="0.0" nodeRatioX="0.0" nodeRatioY="0.0" offsetX="0.0" offsetY="0.0" upX="0.0" upY="-1.0"/></y:ModelParameter></y:NodeLabel>
              <y:UML clipContent="true" constraint="" hasDetailsColor="false" omitDetails="false" stereotype="" use3DEffect="true">
                <y:AttributeLabel xml:space="preserve">+ sounds[]: Sound</y:AttributeLabel>
                <y:MethodLabel xml:space="preserve">- Awake()
- Start()
- Update()

+ PlaySound(in name:string)
</y:MethodLabel>
              </y:UML>
            </y:UMLClassNode>
          </data>
        </node>
        <node id="n1::n1">
          <data key="d4" xml:space="preserve"/>
          <data key="d6">
            <y:UMLClassNode>
              <y:Geometry height="122.17074007732867" width="231.65618030228472" x="931.0645842671347" y="-119.14348415606389"/>
              <y:Fill color="#FFCC00" transparent="false"/>
              <y:BorderStyle color="#000000" type="line" width="1.0"/>
              <y:NodeLabel alignment="center" autoSizePolicy="content" fontFamily="Dialog" fontSize="13" fontStyle="bold" hasBackgroundColor="false" hasLineColor="false" height="19.92626953125" horizontalTextPosition="center" iconTextGap="4" modelName="custom" textColor="#000000" verticalTextPosition="bottom" visible="true" width="44.4345703125" x="93.61080499489236" xml:space="preserve" y="3.0">Sound<y:LabelModel><y:SmartNodeLabelModel distance="4.0"/></y:LabelModel><y:ModelParameter><y:SmartNodeLabelModelParameter labelRatioX="0.0" labelRatioY="0.0" nodeRatioX="0.0" nodeRatioY="0.0" offsetX="0.0" offsetY="0.0" upX="0.0" upY="-1.0"/></y:ModelParameter></y:NodeLabel>
              <y:UML clipContent="true" constraint="" hasDetailsColor="false" omitDetails="false" stereotype="" use3DEffect="true">
                <y:AttributeLabel xml:space="preserve">+ name:string
+ clip:AudioClip
+ volume:float [0f, 1f]
+ pitch:float [.1f, 3f]
+ source:AudioSource [HideInInspector]</y:AttributeLabel>
                <y:MethodLabel xml:space="preserve"/>
              </y:UML>
            </y:UMLClassNode>
          </data>
        </node>
      </graph>
    </node>
    <node id="n2" yfiles.foldertype="group">
      <data key="d6">
        <y:ProxyAutoBoundsNode>
          <y:Realizers active="0">
            <y:GenericGroupNode configuration="com.yworks.bpmn.Artifact.withShadow">
              <y:Geometry height="1085.6847777391304" width="1144.0" x="-1758.5438104265404" y="314.0"/>
              <y:Fill color="#FFFFFFE6" transparent="false"/>
              <y:BorderStyle color="#000000" type="dashed_dotted" width="1.0"/>
              <y:NodeLabel alignment="center" autoSizePolicy="content" fontFamily="Dialog" fontSize="30" fontStyle="plain" hasBackgroundColor="false" hasLineColor="false" height="40.7529296875" horizontalTextPosition="center" iconTextGap="4" modelName="custom" textColor="#000000" verticalTextPosition="bottom" visible="true" width="194.0927734375" x="474.95361328125" xml:space="preserve" y="1040.9318480516304">PowerBuildUp<y:LabelModel><y:SmartNodeLabelModel distance="4.0"/></y:LabelModel><y:ModelParameter><y:SmartNodeLabelModelParameter labelRatioX="0.0" labelRatioY="0.5" nodeRatioX="0.0" nodeRatioY="0.5" offsetX="0.0" offsetY="-4.0" upX="0.0" upY="-1.0"/></y:ModelParameter></y:NodeLabel>
              <y:StyleProperties>
                <y:Property class="java.awt.Color" name="com.yworks.bpmn.icon.line.color" value="#000000"/>
                <y:Property class="java.awt.Color" name="com.yworks.bpmn.icon.fill2" value="#d4d4d4cc"/>
                <y:Property class="java.awt.Color" name="com.yworks.bpmn.icon.fill" value="#ffffffe6"/>
                <y:Property class="com.yworks.yfiles.bpmn.view.BPMNTypeEnum" name="com.yworks.bpmn.type" value="ARTIFACT_TYPE_GROUP"/>
              </y:StyleProperties>
              <y:State autoResize="true" closed="false" closedHeight="80.0" closedWidth="100.0"/>
              <y:Insets bottom="15" bottomF="15.0" left="15" leftF="15.0" right="15" rightF="15.0" top="15" topF="15.0"/>
              <y:BorderInsets bottom="51" bottomF="51.32181147826077" left="0" leftF="0.0" right="0" rightF="0.0" top="29" topF="29.0"/>
            </y:GenericGroupNode>
            <y:GroupNode>
              <y:Geometry height="50.0" width="50.0" x="-25.0" y="-25.0"/>
              <y:Fill color="#F5F5F5" transparent="false"/>
              <y:BorderStyle color="#000000" type="dashed" width="1.0"/>
              <y:NodeLabel alignment="right" autoSizePolicy="node_width" backgroundColor="#EBEBEB" borderDistance="0.0" fontFamily="Dialog" fontSize="15" fontStyle="plain" hasLineColor="false" height="22.37646484375" horizontalTextPosition="center" iconTextGap="4" modelName="internal" modelPosition="t" textColor="#000000" verticalTextPosition="bottom" visible="true" width="59.02685546875" x="-4.513427734375" xml:space="preserve" y="0.0">Folder 2</y:NodeLabel>
              <y:Shape type="roundrectangle"/>
              <y:State closed="true" closedHeight="50.0" closedWidth="50.0" innerGraphDisplayEnabled="false"/>
              <y:Insets bottom="5" bottomF="5.0" left="5" leftF="5.0" right="5" rightF="5.0" top="5" topF="5.0"/>
              <y:BorderInsets bottom="0" bottomF="0.0" left="0" leftF="0.0" right="0" rightF="0.0" top="0" topF="0.0"/>
            </y:GroupNode>
          </y:Realizers>
        </y:ProxyAutoBoundsNode>
      </data>
      <graph edgedefault="directed" id="n2:">
        <node id="n2::n0">
          <data key="d4" xml:space="preserve"/>
          <data key="d6">
            <y:UMLClassNode>
              <y:Geometry height="140.0" width="295.0" x="-1167.5438104265404" y="358.0"/>
              <y:Fill color="#FFCC00" transparent="false"/>
              <y:BorderStyle color="#000000" type="line" width="1.0"/>
              <y:NodeLabel alignment="center" autoSizePolicy="content" fontFamily="Dialog" fontSize="13" fontStyle="bold" hasBackgroundColor="false" hasLineColor="false" height="19.92626953125" horizontalTextPosition="center" iconTextGap="4" modelName="custom" textColor="#000000" verticalTextPosition="bottom" visible="true" width="92.83544921875" x="101.082275390625" xml:space="preserve" y="26.701171875">PowerBuildUp<y:LabelModel><y:SmartNodeLabelModel distance="4.0"/></y:LabelModel><y:ModelParameter><y:SmartNodeLabelModelParameter labelRatioX="0.0" labelRatioY="0.0" nodeRatioX="0.0" nodeRatioY="0.0" offsetX="0.0" offsetY="0.0" upX="0.0" upY="-1.0"/></y:ModelParameter></y:NodeLabel>
              <y:UML clipContent="true" constraint="" hasDetailsColor="false" omitDetails="false" stereotype="abstract" use3DEffect="true">
                <y:AttributeLabel xml:space="preserve">- _powerAmount: float
- _currentPhase: int</y:AttributeLabel>
                <y:MethodLabel xml:space="preserve">+ PowerBuildUpMethod()
</y:MethodLabel>
              </y:UML>
            </y:UMLClassNode>
          </data>
        </node>
        <node id="n2::n1">
          <data key="d4" xml:space="preserve"/>
          <data key="d6">
            <y:UMLClassNode>
              <y:Geometry height="140.0" width="248.0" x="-1743.5438104265404" y="1193.3629662608696"/>
              <y:Fill color="#FFCC00" transparent="false"/>
              <y:BorderStyle color="#000000" type="line" width="1.0"/>
              <y:NodeLabel alignment="center" autoSizePolicy="content" fontFamily="Dialog" fontSize="13" fontStyle="bold" hasBackgroundColor="false" hasLineColor="false" height="19.92626953125" horizontalTextPosition="center" iconTextGap="4" modelName="custom" textColor="#000000" verticalTextPosition="bottom" visible="true" width="159.27001953125" x="44.364990234375" xml:space="preserve" y="3.0">LongJumpPowerBuildUp<y:LabelModel><y:SmartNodeLabelModel distance="4.0"/></y:LabelModel><y:ModelParameter><y:SmartNodeLabelModelParameter labelRatioX="0.0" labelRatioY="0.0" nodeRatioX="0.0" nodeRatioY="0.0" offsetX="0.0" offsetY="0.0" upX="0.0" upY="-1.0"/></y:ModelParameter></y:NodeLabel>
              <y:UML clipContent="true" constraint="" hasDetailsColor="false" omitDetails="false" stereotype="" use3DEffect="true">
                <y:AttributeLabel xml:space="preserve"/>
                <y:MethodLabel xml:space="preserve">+ MeasureDistanceLeft(): int
+ BuildUpTriggerReached(): boolean

+ PowerBuildUpMethod()</y:MethodLabel>
              </y:UML>
            </y:UMLClassNode>
          </data>
        </node>
        <node id="n2::n2">
          <data key="d4" xml:space="preserve"/>
          <data key="d6">
            <y:UMLClassNode>
              <y:Geometry height="140.0" width="248.0" x="-1414.5438104265404" y="1193.3629662608696"/>
              <y:Fill color="#FFCC00" transparent="false"/>
              <y:BorderStyle color="#000000" type="line" width="1.0"/>
              <y:NodeLabel alignment="center" autoSizePolicy="content" fontFamily="Dialog" fontSize="13" fontStyle="bold" hasBackgroundColor="false" hasLineColor="false" height="19.92626953125" horizontalTextPosition="center" iconTextGap="4" modelName="custom" textColor="#000000" verticalTextPosition="bottom" visible="true" width="152.07177734375" x="47.964111328125" xml:space="preserve" y="3.0">PoleVaultPowerBuildUp<y:LabelModel><y:SmartNodeLabelModel distance="4.0"/></y:LabelModel><y:ModelParameter><y:SmartNodeLabelModelParameter labelRatioX="0.0" labelRatioY="0.0" nodeRatioX="0.0" nodeRatioY="0.0" offsetX="0.0" offsetY="0.0" upX="0.0" upY="-1.0"/></y:ModelParameter></y:NodeLabel>
              <y:UML clipContent="true" constraint="" hasDetailsColor="false" omitDetails="false" stereotype="" use3DEffect="true">
                <y:AttributeLabel xml:space="preserve"/>
                <y:MethodLabel xml:space="preserve">+ MeasureDistanceLeft(): int
+ BuildUpTriggerReached(): boolean

+ PowerBuildUp()
+ GetPower(in powerAmount): int</y:MethodLabel>
              </y:UML>
            </y:UMLClassNode>
          </data>
        </node>
        <node id="n2::n3">
          <data key="d4" xml:space="preserve"/>
          <data key="d6">
            <y:UMLClassNode>
              <y:Geometry height="140.0" width="248.0" x="-1085.5438104265404" y="1188.3629662608696"/>
              <y:Fill color="#FFCC00" transparent="false"/>
              <y:BorderStyle color="#000000" type="line" width="1.0"/>
              <y:NodeLabel alignment="center" autoSizePolicy="content" fontFamily="Dialog" fontSize="13" fontStyle="bold" hasBackgroundColor="false" hasLineColor="false" height="19.92626953125" horizontalTextPosition="center" iconTextGap="4" modelName="custom" textColor="#000000" verticalTextPosition="bottom" visible="true" width="175.91357421875" x="36.043212890625" xml:space="preserve" y="3.0">JavelinThrowPowerBuildUp<y:LabelModel><y:SmartNodeLabelModel distance="4.0"/></y:LabelModel><y:ModelParameter><y:SmartNodeLabelModelParameter labelRatioX="0.0" labelRatioY="0.0" nodeRatioX="0.0" nodeRatioY="0.0" offsetX="0.0" offsetY="0.0" upX="0.0" upY="-1.0"/></y:ModelParameter></y:NodeLabel>
              <y:UML clipContent="true" constraint="" hasDetailsColor="false" omitDetails="false" stereotype="" use3DEffect="true">
                <y:AttributeLabel xml:space="preserve"/>
                <y:MethodLabel xml:space="preserve">+ MeasureDistanceLeft(): int
+ BuildUpTriggerReached(): boolean

+ PowerBuildUp()
+ GetPower(in powerAmount): int</y:MethodLabel>
              </y:UML>
            </y:UMLClassNode>
          </data>
        </node>
        <node id="n2::n4">
          <data key="d4" xml:space="preserve"/>
          <data key="d6">
            <y:UMLClassNode>
              <y:Geometry height="140.0" width="248.0" x="-877.5438104265404" y="679.0"/>
              <y:Fill color="#FFCC00" transparent="false"/>
              <y:BorderStyle color="#000000" type="line" width="1.0"/>
              <y:NodeLabel alignment="center" autoSizePolicy="content" fontFamily="Dialog" fontSize="13" fontStyle="bold" hasBackgroundColor="false" hasLineColor="false" height="19.92626953125" horizontalTextPosition="center" iconTextGap="4" modelName="custom" textColor="#000000" verticalTextPosition="bottom" visible="true" width="175.86279296875" x="36.068603515625" xml:space="preserve" y="3.0">WeightLiftingPowerBuildUp<y:LabelModel><y:SmartNodeLabelModel distance="4.0"/></y:LabelModel><y:ModelParameter><y:SmartNodeLabelModelParameter labelRatioX="0.0" labelRatioY="0.0" nodeRatioX="0.0" nodeRatioY="0.0" offsetX="0.0" offsetY="0.0" upX="0.0" upY="-1.0"/></y:ModelParameter></y:NodeLabel>
              <y:UML clipContent="true" constraint="" hasDetailsColor="false" omitDetails="false" stereotype="" use3DEffect="true">
                <y:AttributeLabel xml:space="preserve">- timeToBuildUpEnd: int</y:AttributeLabel>
                <y:MethodLabel xml:space="preserve">+ PowerBuildUp()
+ GetPower(in powerAmount): int</y:MethodLabel>
              </y:UML>
            </y:UMLClassNode>
          </data>
        </node>
        <node id="n2::n5">
          <data key="d4" xml:space="preserve"/>
          <data key="d6">
            <y:UMLClassNode>
              <y:Geometry height="323.41935002134244" width="248.0" x="-1414.5438104265404" y="647.5799999999999"/>
              <y:Fill color="#FFCC00" transparent="false"/>
              <y:BorderStyle color="#000000" type="line" width="1.0"/>
              <y:NodeLabel alignment="center" autoSizePolicy="content" fontFamily="Dialog" fontSize="13" fontStyle="bold" hasBackgroundColor="false" hasLineColor="false" height="19.92626953125" horizontalTextPosition="center" iconTextGap="4" modelName="custom" textColor="#000000" verticalTextPosition="bottom" visible="true" width="165.77001953125" x="41.114990234375" xml:space="preserve" y="26.701171875">PowerBuildUpWithTrigger<y:LabelModel><y:SmartNodeLabelModel distance="4.0"/></y:LabelModel><y:ModelParameter><y:SmartNodeLabelModelParameter labelRatioX="0.0" labelRatioY="0.0" nodeRatioX="0.0" nodeRatioY="0.0" offsetX="0.0" offsetY="0.0" upX="0.0" upY="-1.0"/></y:ModelParameter></y:NodeLabel>
              <y:UML clipContent="true" constraint="" hasDetailsColor="false" omitDetails="false" stereotype="abstract" use3DEffect="true">
                <y:AttributeLabel xml:space="preserve">- _distanceToBuildUpEnd: float
- _distanceTravelled: float
- _triggerReached: boolean
- _vectorRunUpOrientation: Vector3
- _transform: Transform

+ runUpOrientation: GameObject
+ buildUpMultiplier: float
+ buildUpSubtractor: float
+ angleAimTrigger: Collider</y:AttributeLabel>
                <y:MethodLabel xml:space="preserve">+ MeasureDistanceLeft(): float
+ BuildUpTriggerReached(): boolean
+ RunUpMovement()

+ PowerBuildUpMethod()</y:MethodLabel>
              </y:UML>
            </y:UMLClassNode>
          </data>
        </node>
      </graph>
    </node>
    <node id="n3" yfiles.foldertype="group">
      <data key="d6">
        <y:ProxyAutoBoundsNode>
          <y:Realizers active="0">
            <y:GenericGroupNode configuration="com.yworks.bpmn.Artifact.withShadow">
              <y:Geometry height="727.6408962690662" width="2300.8379846300677" x="2100.348690599064" y="336.8580082205801"/>
              <y:Fill color="#FFFFFFE6" transparent="false"/>
              <y:BorderStyle color="#000000" type="dashed_dotted" width="1.0"/>
              <y:NodeLabel alignment="center" autoSizePolicy="content" fontFamily="Dialog" fontSize="30" fontStyle="plain" hasBackgroundColor="false" hasLineColor="false" height="40.7529296875" horizontalTextPosition="center" iconTextGap="4" modelName="custom" textColor="#000000" verticalTextPosition="bottom" visible="true" width="137.4033203125" x="1081.7173321587838" xml:space="preserve" y="682.8879665815662">Animation<y:LabelModel><y:SmartNodeLabelModel distance="4.0"/></y:LabelModel><y:ModelParameter><y:SmartNodeLabelModelParameter labelRatioX="0.0" labelRatioY="0.5" nodeRatioX="0.0" nodeRatioY="0.5" offsetX="0.0" offsetY="-4.0" upX="0.0" upY="-1.0"/></y:ModelParameter></y:NodeLabel>
              <y:StyleProperties>
                <y:Property class="java.awt.Color" name="com.yworks.bpmn.icon.line.color" value="#000000"/>
                <y:Property class="java.awt.Color" name="com.yworks.bpmn.icon.fill2" value="#d4d4d4cc"/>
                <y:Property class="java.awt.Color" name="com.yworks.bpmn.icon.fill" value="#ffffffe6"/>
                <y:Property class="com.yworks.yfiles.bpmn.view.BPMNTypeEnum" name="com.yworks.bpmn.type" value="ARTIFACT_TYPE_GROUP"/>
              </y:StyleProperties>
              <y:State autoResize="true" closed="false" closedHeight="80.0" closedWidth="100.0"/>
              <y:Insets bottom="15" bottomF="15.0" left="15" leftF="15.0" right="15" rightF="15.0" top="15" topF="15.0"/>
              <y:BorderInsets bottom="0" bottomF="0.0" left="0" leftF="0.0" right="0" rightF="0.0" top="0" topF="0.0"/>
            </y:GenericGroupNode>
            <y:GroupNode>
              <y:Geometry height="50.0" width="50.0" x="-25.0" y="-25.0"/>
              <y:Fill color="#F5F5F5" transparent="false"/>
              <y:BorderStyle color="#000000" type="dashed" width="1.0"/>
              <y:NodeLabel alignment="right" autoSizePolicy="node_width" backgroundColor="#EBEBEB" borderDistance="0.0" fontFamily="Dialog" fontSize="15" fontStyle="plain" hasLineColor="false" height="22.37646484375" horizontalTextPosition="center" iconTextGap="4" modelName="internal" modelPosition="t" textColor="#000000" verticalTextPosition="bottom" visible="true" width="59.02685546875" x="-4.513427734375" xml:space="preserve" y="0.0">Folder 3</y:NodeLabel>
              <y:Shape type="roundrectangle"/>
              <y:State closed="true" closedHeight="50.0" closedWidth="50.0" innerGraphDisplayEnabled="false"/>
              <y:Insets bottom="5" bottomF="5.0" left="5" leftF="5.0" right="5" rightF="5.0" top="5" topF="5.0"/>
              <y:BorderInsets bottom="0" bottomF="0.0" left="0" leftF="0.0" right="0" rightF="0.0" top="0" topF="0.0"/>
            </y:GroupNode>
          </y:Realizers>
        </y:ProxyAutoBoundsNode>
      </data>
      <graph edgedefault="directed" id="n3:">
        <node id="n3::n0">
          <data key="d4" xml:space="preserve"/>
          <data key="d6">
            <y:UMLClassNode>
              <y:Geometry height="187.83490971625116" width="228.5159071367152" x="2688.6707867583846" y="351.8580082205801"/>
              <y:Fill color="#FFCC00" transparent="false"/>
              <y:BorderStyle color="#000000" type="line" width="1.0"/>
              <y:NodeLabel alignment="center" autoSizePolicy="content" fontFamily="Dialog" fontSize="13" fontStyle="bold" hasBackgroundColor="false" hasLineColor="false" height="19.92626953125" horizontalTextPosition="center" iconTextGap="4" modelName="custom" textColor="#000000" verticalTextPosition="bottom" visible="true" width="165.07177734375" x="31.722064896482607" xml:space="preserve" y="26.701171875">AthleteAnimationManager<y:LabelModel><y:SmartNodeLabelModel distance="4.0"/></y:LabelModel><y:ModelParameter><y:SmartNodeLabelModelParameter labelRatioX="0.0" labelRatioY="0.0" nodeRatioX="0.0" nodeRatioY="0.0" offsetX="0.0" offsetY="0.0" upX="0.0" upY="-1.0"/></y:ModelParameter></y:NodeLabel>
              <y:UML clipContent="true" constraint="" hasDetailsColor="false" omitDetails="false" stereotype="abstract" use3DEffect="true">
                <y:AttributeLabel xml:space="preserve">- animationList[..]: Animations</y:AttributeLabel>
                <y:MethodLabel xml:space="preserve">+ SetAnimation()
+ GetAnimation()

+ IdleAnimation()
+ CelebrationAnimation()
+ DisappointmentAnimation()</y:MethodLabel>
              </y:UML>
            </y:UMLClassNode>
          </data>
        </node>
        <node id="n3::n1">
          <data key="d4" xml:space="preserve"/>
          <data key="d6">
            <y:UMLClassNode>
              <y:Geometry height="182.4350816852966" width="228.5159071367152" x="2402.0097386787243" y="683.6439165950137"/>
              <y:Fill color="#FFCC00" transparent="false"/>
              <y:BorderStyle color="#000000" type="line" width="1.0"/>
              <y:NodeLabel alignment="center" autoSizePolicy="content" fontFamily="Dialog" fontSize="13" fontStyle="bold" hasBackgroundColor="false" hasLineColor="false" height="19.92626953125" horizontalTextPosition="center" iconTextGap="4" modelName="custom" textColor="#000000" verticalTextPosition="bottom" visible="true" width="126.7890625" x="50.86342231835761" xml:space="preserve" y="3.0">PoleVaultAnimation<y:LabelModel><y:SmartNodeLabelModel distance="4.0"/></y:LabelModel><y:ModelParameter><y:SmartNodeLabelModelParameter labelRatioX="0.0" labelRatioY="0.0" nodeRatioX="0.0" nodeRatioY="0.0" offsetX="0.0" offsetY="0.0" upX="0.0" upY="-1.0"/></y:ModelParameter></y:NodeLabel>
              <y:UML clipContent="true" constraint="" hasDetailsColor="false" omitDetails="false" stereotype="" use3DEffect="true">
                <y:AttributeLabel xml:space="preserve"/>
                <y:MethodLabel xml:space="preserve">+ RunUpAnimation()
+ PlantAndTakeOffAnimation()
+ SwingUpAnimation()
+ ExtentionAndTurnAnimation()
+ FlyOffAnimation()

+ IdleAnimation()
+ CelebrationAnimation()
+ DisappointmentAnimation()</y:MethodLabel>
              </y:UML>
            </y:UMLClassNode>
          </data>
        </node>
        <node id="n3::n2">
          <data key="d4" xml:space="preserve"/>
          <data key="d6">
            <y:UMLClassNode>
              <y:Geometry height="83.88822012037804" width="228.5159071367152" x="2570.166165090287" y="965.6106843692683"/>
              <y:Fill color="#FFCC00" transparent="false"/>
              <y:BorderStyle color="#000000" type="line" width="1.0"/>
              <y:NodeLabel alignment="center" autoSizePolicy="content" fontFamily="Dialog" fontSize="13" fontStyle="bold" hasBackgroundColor="false" hasLineColor="false" height="19.92626953125" horizontalTextPosition="center" iconTextGap="4" modelName="custom" textColor="#000000" verticalTextPosition="bottom" visible="true" width="150.63720703125" x="38.93935005273261" xml:space="preserve" y="3.0">ClassicSprintAnimation<y:LabelModel><y:SmartNodeLabelModel distance="4.0"/></y:LabelModel><y:ModelParameter><y:SmartNodeLabelModelParameter labelRatioX="0.0" labelRatioY="0.0" nodeRatioX="0.0" nodeRatioY="0.0" offsetX="0.0" offsetY="0.0" upX="0.0" upY="-1.0"/></y:ModelParameter></y:NodeLabel>
              <y:UML clipContent="true" constraint="" hasDetailsColor="false" omitDetails="false" stereotype="" use3DEffect="true">
                <y:AttributeLabel xml:space="preserve"/>
                <y:MethodLabel xml:space="preserve"> </y:MethodLabel>
              </y:UML>
            </y:UMLClassNode>
          </data>
        </node>
        <node id="n3::n3">
          <data key="d4" xml:space="preserve"/>
          <data key="d6">
            <y:UMLClassNode>
              <y:Geometry height="182.4350816852966" width="228.5159071367152" x="2688.6707867583846" y="683.6439165950137"/>
              <y:Fill color="#FFCC00" transparent="false"/>
              <y:BorderStyle color="#000000" type="line" width="1.0"/>
              <y:NodeLabel alignment="center" autoSizePolicy="content" fontFamily="Dialog" fontSize="13" fontStyle="bold" hasBackgroundColor="false" hasLineColor="false" height="19.92626953125" horizontalTextPosition="center" iconTextGap="4" modelName="custom" textColor="#000000" verticalTextPosition="bottom" visible="true" width="105.10546875" x="61.70521919335761" xml:space="preserve" y="3.0">SprintAnimation<y:LabelModel><y:SmartNodeLabelModel distance="4.0"/></y:LabelModel><y:ModelParameter><y:SmartNodeLabelModelParameter labelRatioX="0.0" labelRatioY="0.0" nodeRatioX="0.0" nodeRatioY="0.0" offsetX="0.0" offsetY="0.0" upX="0.0" upY="-1.0"/></y:ModelParameter></y:NodeLabel>
              <y:UML clipContent="true" constraint="" hasDetailsColor="false" omitDetails="false" stereotype="" use3DEffect="true">
                <y:AttributeLabel xml:space="preserve"/>
                <y:MethodLabel xml:space="preserve">+ StartAnimation()
+ RunAnimation()
+ Finish Animation()

+ IdleAnimation()
+ CelebrationAnimation()
+ DisappointmentAnimation()</y:MethodLabel>
              </y:UML>
            </y:UMLClassNode>
          </data>
        </node>
        <node id="n3::n4">
          <data key="d4" xml:space="preserve"/>
          <data key="d6">
            <y:UMLClassNode>
              <y:Geometry height="83.88822012037815" width="228.5159071367152" x="2828.682072227002" y="965.610684369268"/>
              <y:Fill color="#FFCC00" transparent="false"/>
              <y:BorderStyle color="#000000" type="line" width="1.0"/>
              <y:NodeLabel alignment="center" autoSizePolicy="content" fontFamily="Dialog" fontSize="13" fontStyle="bold" hasBackgroundColor="false" hasLineColor="false" height="19.92626953125" horizontalTextPosition="center" iconTextGap="4" modelName="custom" textColor="#000000" verticalTextPosition="bottom" visible="true" width="146.2763671875" x="41.11976997460761" xml:space="preserve" y="3.0">HurdleSprintAnimation<y:LabelModel><y:SmartNodeLabelModel distance="4.0"/></y:LabelModel><y:ModelParameter><y:SmartNodeLabelModelParameter labelRatioX="0.0" labelRatioY="0.0" nodeRatioX="0.0" nodeRatioY="0.0" offsetX="0.0" offsetY="0.0" upX="0.0" upY="-1.0"/></y:ModelParameter></y:NodeLabel>
              <y:UML clipContent="true" constraint="" hasDetailsColor="false" omitDetails="false" stereotype="" use3DEffect="true">
                <y:AttributeLabel xml:space="preserve"/>
                <y:MethodLabel xml:space="preserve">+ HurdleJumpAnimation()
+ TripAnimation()</y:MethodLabel>
              </y:UML>
            </y:UMLClassNode>
          </data>
        </node>
        <node id="n3::n5">
          <data key="d4" xml:space="preserve"/>
          <data key="d6">
            <y:UMLClassNode>
              <y:Geometry height="182.4350816852966" width="187.4772141014614" x="2975.331834838045" y="683.6439165950137"/>
              <y:Fill color="#FFCC00" transparent="false"/>
              <y:BorderStyle color="#000000" type="line" width="1.0"/>
              <y:NodeLabel alignment="center" autoSizePolicy="content" fontFamily="Dialog" fontSize="13" fontStyle="bold" hasBackgroundColor="false" hasLineColor="false" height="19.92626953125" horizontalTextPosition="center" iconTextGap="4" modelName="custom" textColor="#000000" verticalTextPosition="bottom" visible="true" width="133.9873046875" x="26.744954706980707" xml:space="preserve" y="3.0">LongJumpAnimation<y:LabelModel><y:SmartNodeLabelModel distance="4.0"/></y:LabelModel><y:ModelParameter><y:SmartNodeLabelModelParameter labelRatioX="0.0" labelRatioY="0.0" nodeRatioX="0.0" nodeRatioY="0.0" offsetX="0.0" offsetY="0.0" upX="0.0" upY="-1.0"/></y:ModelParameter></y:NodeLabel>
              <y:UML clipContent="true" constraint="" hasDetailsColor="false" omitDetails="false" stereotype="" use3DEffect="true">
                <y:AttributeLabel xml:space="preserve"/>
                <y:MethodLabel xml:space="preserve">+ RunUpAnimation()
+ JumpAnimation()
+ MidAirAnimation()
+ LandingAnimation()

+ IdleAnimation()
+ CelebrationAnimation()
+ DisappointmentAnimation()</y:MethodLabel>
              </y:UML>
            </y:UMLClassNode>
          </data>
        </node>
        <node id="n3::n6">
          <data key="d4" xml:space="preserve"/>
          <data key="d6">
            <y:UMLClassNode>
              <y:Geometry height="212.134135855546" width="228.5159071367152" x="3220.9541898824514" y="683.6439165950137"/>
              <y:Fill color="#FFCC00" transparent="false"/>
              <y:BorderStyle color="#000000" type="line" width="1.0"/>
              <y:NodeLabel alignment="center" autoSizePolicy="content" fontFamily="Dialog" fontSize="13" fontStyle="bold" hasBackgroundColor="false" hasLineColor="false" height="19.92626953125" horizontalTextPosition="center" iconTextGap="4" modelName="custom" textColor="#000000" verticalTextPosition="bottom" visible="true" width="150.580078125" x="38.96791450585761" xml:space="preserve" y="3.0">WeightLiftingAnimation<y:LabelModel><y:SmartNodeLabelModel distance="4.0"/></y:LabelModel><y:ModelParameter><y:SmartNodeLabelModelParameter labelRatioX="0.0" labelRatioY="0.0" nodeRatioX="0.0" nodeRatioY="0.0" offsetX="0.0" offsetY="0.0" upX="0.0" upY="-1.0"/></y:ModelParameter></y:NodeLabel>
              <y:UML clipContent="true" constraint="" hasDetailsColor="false" omitDetails="false" stereotype="" use3DEffect="true">
                <y:AttributeLabel xml:space="preserve"/>
                <y:MethodLabel xml:space="preserve">+ PowerBuildUpAnimation()
+ LiftStageOneAnimation()
+ LiftStageTwoAnimation()
+ HoldAnimation()
+ SuccessfulHoldAnimation()
+ UnsuccessfulHoldAnimation()

+ IdleAnimation()
+ CelebrationAnimation()
+ DisappointmentAnimation()</y:MethodLabel>
              </y:UML>
            </y:UMLClassNode>
          </data>
        </node>
        <node id="n3::n7">
          <data key="d4" xml:space="preserve"/>
          <data key="d6">
            <y:UMLClassNode>
              <y:Geometry height="152.72066016441158" width="176.0340036095463" x="3507.6152379621117" y="683.6439165950137"/>
              <y:Fill color="#FFCC00" transparent="false"/>
              <y:BorderStyle color="#000000" type="line" width="1.0"/>
              <y:NodeLabel alignment="center" autoSizePolicy="content" fontFamily="Dialog" fontSize="13" fontStyle="bold" hasBackgroundColor="false" hasLineColor="false" height="19.92626953125" horizontalTextPosition="center" iconTextGap="4" modelName="custom" textColor="#000000" verticalTextPosition="bottom" visible="true" width="116.68994140625" x="29.672031101648145" xml:space="preserve" y="3.0">ArcheryAnimation<y:LabelModel><y:SmartNodeLabelModel distance="4.0"/></y:LabelModel><y:ModelParameter><y:SmartNodeLabelModelParameter labelRatioX="0.0" labelRatioY="0.0" nodeRatioX="0.0" nodeRatioY="0.0" offsetX="0.0" offsetY="0.0" upX="0.0" upY="-1.0"/></y:ModelParameter></y:NodeLabel>
              <y:UML clipContent="true" constraint="" hasDetailsColor="false" omitDetails="false" stereotype="" use3DEffect="true">
                <y:AttributeLabel xml:space="preserve"/>
                <y:MethodLabel xml:space="preserve">+ NockingAnimation()
+ ReleaseAnimation()

+ IdleAnimation()
+ CelebrationAnimation()
+ DisappointmentAnimation()</y:MethodLabel>
              </y:UML>
            </y:UMLClassNode>
          </data>
        </node>
        <node id="n3::n8">
          <data key="d4" xml:space="preserve"/>
          <data key="d6">
            <y:UMLClassNode>
              <y:Geometry height="152.72066016441158" width="176.0340036095463" x="3741.794382514603" y="683.6439165950137"/>
              <y:Fill color="#FFCC00" transparent="false"/>
              <y:BorderStyle color="#000000" type="line" width="1.0"/>
              <y:NodeLabel alignment="center" autoSizePolicy="content" fontFamily="Dialog" fontSize="13" fontStyle="bold" hasBackgroundColor="false" hasLineColor="false" height="19.92626953125" horizontalTextPosition="center" iconTextGap="4" modelName="custom" textColor="#000000" verticalTextPosition="bottom" visible="true" width="111.63720703125" x="32.198398289148145" xml:space="preserve" y="3.0">JavelinAnimation<y:LabelModel><y:SmartNodeLabelModel distance="4.0"/></y:LabelModel><y:ModelParameter><y:SmartNodeLabelModelParameter labelRatioX="0.0" labelRatioY="0.0" nodeRatioX="0.0" nodeRatioY="0.0" offsetX="0.0" offsetY="0.0" upX="0.0" upY="-1.0"/></y:ModelParameter></y:NodeLabel>
              <y:UML clipContent="true" constraint="" hasDetailsColor="false" omitDetails="false" stereotype="" use3DEffect="true">
                <y:AttributeLabel xml:space="preserve"/>
                <y:MethodLabel xml:space="preserve">+ RunUpAnimation()
+ TransitionAnimation()
+ DeliveryAnimation()

+ IdleAnimation()
+ CelebrationAnimation()
+ DisappointmentAnimation()</y:MethodLabel>
              </y:UML>
            </y:UMLClassNode>
          </data>
        </node>
        <node id="n3::n9">
          <data key="d4" xml:space="preserve"/>
          <data key="d6">
            <y:UMLClassNode>
              <y:Geometry height="187.3785209842399" width="176.0340036095463" x="3975.9735270670944" y="683.6439165950137"/>
              <y:Fill color="#FFCC00" transparent="false"/>
              <y:BorderStyle color="#000000" type="line" width="1.0"/>
              <y:NodeLabel alignment="center" autoSizePolicy="content" fontFamily="Dialog" fontSize="13" fontStyle="bold" hasBackgroundColor="false" hasLineColor="false" height="19.92626953125" horizontalTextPosition="center" iconTextGap="4" modelName="custom" textColor="#000000" verticalTextPosition="bottom" visible="true" width="132.55908203125" x="21.737460789148145" xml:space="preserve" y="3.0">SwimmingAnimation<y:LabelModel><y:SmartNodeLabelModel distance="4.0"/></y:LabelModel><y:ModelParameter><y:SmartNodeLabelModelParameter labelRatioX="0.0" labelRatioY="0.0" nodeRatioX="0.0" nodeRatioY="0.0" offsetX="0.0" offsetY="0.0" upX="0.0" upY="-1.0"/></y:ModelParameter></y:NodeLabel>
              <y:UML clipContent="true" constraint="" hasDetailsColor="false" omitDetails="false" stereotype="" use3DEffect="true">
                <y:AttributeLabel xml:space="preserve"/>
                <y:MethodLabel xml:space="preserve">+ StartAnimation()
+ DivePhaseAnimation()
+ SwimAnimation()
+ TurnAnimation()
+ FinishAnimation()

+ IdleAnimation()
+ CelebrationAnimation()
+ DisappointmentAnimation()</y:MethodLabel>
              </y:UML>
            </y:UMLClassNode>
          </data>
        </node>
        <node id="n3::n10">
          <data key="d4" xml:space="preserve"/>
          <data key="d6">
            <y:UMLClassNode>
              <y:Geometry height="187.3785209842399" width="176.0340036095463" x="4210.152671619586" y="683.6439165950137"/>
              <y:Fill color="#FFCC00" transparent="false"/>
              <y:BorderStyle color="#000000" type="line" width="1.0"/>
              <y:NodeLabel alignment="center" autoSizePolicy="content" fontFamily="Dialog" fontSize="13" fontStyle="bold" hasBackgroundColor="false" hasLineColor="false" height="19.92626953125" horizontalTextPosition="center" iconTextGap="4" modelName="custom" textColor="#000000" verticalTextPosition="bottom" visible="true" width="93.54638671875" x="41.243808445398145" xml:space="preserve" y="3.0">GolfAnimation<y:LabelModel><y:SmartNodeLabelModel distance="4.0"/></y:LabelModel><y:ModelParameter><y:SmartNodeLabelModelParameter labelRatioX="0.0" labelRatioY="0.0" nodeRatioX="0.0" nodeRatioY="0.0" offsetX="0.0" offsetY="0.0" upX="0.0" upY="-1.0"/></y:ModelParameter></y:NodeLabel>
              <y:UML clipContent="true" constraint="" hasDetailsColor="false" omitDetails="false" stereotype="" use3DEffect="true">
                <y:AttributeLabel xml:space="preserve"/>
                <y:MethodLabel xml:space="preserve">+ SwingAnimation()
+ PuttAnimation()

+ IdleAnimation()
+ CelebrationAnimation()
+ DisappointmentAnimation()</y:MethodLabel>
              </y:UML>
            </y:UMLClassNode>
          </data>
        </node>
        <node id="n3::n11">
          <data key="d4" xml:space="preserve"/>
          <data key="d6">
            <y:UMLClassNode>
              <y:Geometry height="182.4350816852966" width="228.5159071367152" x="2115.348690599064" y="683.6439165950137"/>
              <y:Fill color="#FFCC00" transparent="false"/>
              <y:BorderStyle color="#000000" type="line" width="1.0"/>
              <y:NodeLabel alignment="center" autoSizePolicy="content" fontFamily="Dialog" fontSize="13" fontStyle="bold" hasBackgroundColor="false" hasLineColor="false" height="19.92626953125" horizontalTextPosition="center" iconTextGap="4" modelName="custom" textColor="#000000" verticalTextPosition="bottom" visible="true" width="136.158203125" x="46.17885200585761" xml:space="preserve" y="3.0">HighDivingAnimation<y:LabelModel><y:SmartNodeLabelModel distance="4.0"/></y:LabelModel><y:ModelParameter><y:SmartNodeLabelModelParameter labelRatioX="0.0" labelRatioY="0.0" nodeRatioX="0.0" nodeRatioY="0.0" offsetX="0.0" offsetY="0.0" upX="0.0" upY="-1.0"/></y:ModelParameter></y:NodeLabel>
              <y:UML clipContent="true" constraint="" hasDetailsColor="false" omitDetails="false" stereotype="" use3DEffect="true">
                <y:AttributeLabel xml:space="preserve"/>
                <y:MethodLabel xml:space="preserve">+ LaunchAnimation()
+ TwistAnimation(in trickSet[]: int)
+ EntryAnimation()

+ IdleAnimation()
+ CelebrationAnimation()
+ DisappointmentAnimation()</y:MethodLabel>
              </y:UML>
            </y:UMLClassNode>
          </data>
        </node>
      </graph>
    </node>
    <node id="n4">
      <data key="d4" xml:space="preserve"/>
      <data key="d6">
        <y:UMLClassNode>
          <y:Geometry height="114.71936598383121" width="201.71354207381364" x="2174.2083505518453" y="-113.39491231985801"/>
          <y:Fill color="#FFCC00" transparent="false"/>
          <y:BorderStyle color="#000000" type="line" width="1.0"/>
          <y:NodeLabel alignment="center" autoSizePolicy="content" fontFamily="Dialog" fontSize="13" fontStyle="bold" hasBackgroundColor="false" hasLineColor="false" height="19.92626953125" horizontalTextPosition="center" iconTextGap="4" modelName="custom" textColor="#000000" verticalTextPosition="bottom" visible="true" width="70.4599609375" x="65.62679056815682" xml:space="preserve" y="3.0">UIManager<y:LabelModel><y:SmartNodeLabelModel distance="4.0"/></y:LabelModel><y:ModelParameter><y:SmartNodeLabelModelParameter labelRatioX="0.0" labelRatioY="0.0" nodeRatioX="0.0" nodeRatioY="0.0" offsetX="0.0" offsetY="0.0" upX="0.0" upY="-1.0"/></y:ModelParameter></y:NodeLabel>
          <y:UML clipContent="true" constraint="" hasDetailsColor="false" omitDetails="false" stereotype="" use3DEffect="true">
            <y:AttributeLabel xml:space="preserve">+ uiLayouts[]: GameObject</y:AttributeLabel>
            <y:MethodLabel xml:space="preserve">+ SetUILayout()</y:MethodLabel>
          </y:UML>
        </y:UMLClassNode>
      </data>
    </node>
    <node id="n5">
      <data key="d4" xml:space="preserve"/>
      <data key="d6">
        <y:UMLClassNode>
          <y:Geometry height="114.71936598383121" width="266.85592295254855" x="2515.7693727746905" y="-113.39491231985795"/>
          <y:Fill color="#FFCC00" transparent="false"/>
          <y:BorderStyle color="#000000" type="line" width="1.0"/>
          <y:NodeLabel alignment="center" autoSizePolicy="content" fontFamily="Dialog" fontSize="13" fontStyle="bold" hasBackgroundColor="false" hasLineColor="false" height="19.92626953125" horizontalTextPosition="center" iconTextGap="4" modelName="custom" textColor="#000000" verticalTextPosition="bottom" visible="true" width="59.61181640625" x="103.62205327314928" xml:space="preserve" y="3.0">UILayout<y:LabelModel><y:SmartNodeLabelModel distance="4.0"/></y:LabelModel><y:ModelParameter><y:SmartNodeLabelModelParameter labelRatioX="0.0" labelRatioY="0.0" nodeRatioX="0.0" nodeRatioY="0.0" offsetX="0.0" offsetY="0.0" upX="0.0" upY="-1.0"/></y:ModelParameter></y:NodeLabel>
          <y:UML clipContent="true" constraint="" hasDetailsColor="false" omitDetails="false" stereotype="" use3DEffect="true">
            <y:AttributeLabel xml:space="preserve"/>
            <y:MethodLabel xml:space="preserve"/>
          </y:UML>
        </y:UMLClassNode>
      </data>
    </node>
    <node id="n6">
      <data key="d4" xml:space="preserve"/>
      <data key="d5"/>
      <data key="d6">
        <y:UMLClassNode>
          <y:Geometry height="179.82770457245732" width="238.02518597496112" x="52.018265667229684" y="360.51771303664265"/>
          <y:Fill color="#FFCC00" transparent="false"/>
          <y:BorderStyle color="#000000" type="line" width="1.0"/>
          <y:NodeLabel alignment="center" autoSizePolicy="content" fontFamily="Dialog" fontSize="13" fontStyle="bold" hasBackgroundColor="false" hasLineColor="false" height="19.92626953125" horizontalTextPosition="center" iconTextGap="4" modelName="custom" textColor="#000000" verticalTextPosition="bottom" visible="true" width="147.7490234375" x="45.13808126873056" xml:space="preserve" y="26.701171875">LaunchAngleSequence<y:LabelModel><y:SmartNodeLabelModel distance="4.0"/></y:LabelModel><y:ModelParameter><y:SmartNodeLabelModelParameter labelRatioX="0.0" labelRatioY="0.0" nodeRatioX="0.0" nodeRatioY="0.0" offsetX="0.0" offsetY="0.0" upX="0.0" upY="-1.0"/></y:ModelParameter></y:NodeLabel>
          <y:UML clipContent="true" constraint="" hasDetailsColor="false" omitDetails="false" stereotype="abstract" use3DEffect="true">
            <y:AttributeLabel xml:space="preserve">- launchAngleSequenceActive: bool
- launchAngle: float</y:AttributeLabel>
            <y:MethodLabel xml:space="preserve">+ SetLaunchAngleSequenceActive()
</y:MethodLabel>
          </y:UML>
        </y:UMLClassNode>
      </data>
    </node>
    <node id="n7">
      <data key="d4" xml:space="preserve"/>
      <data key="d5"/>
      <data key="d6">
        <y:UMLClassNode>
          <y:Geometry height="28.0" width="100.0" x="-312.42180441938797" y="711.6270302981395"/>
          <y:Fill color="#FFCC00" transparent="false"/>
          <y:BorderStyle color="#000000" type="line" width="1.0"/>
          <y:NodeLabel alignment="center" autoSizePolicy="content" fontFamily="Dialog" fontSize="13" fontStyle="bold" hasBackgroundColor="false" hasLineColor="false" height="19.92626953125" horizontalTextPosition="center" iconTextGap="4" modelName="custom" textColor="#000000" verticalTextPosition="bottom" visible="true" width="38.68994140625" x="30.655029296875" xml:space="preserve" y="3.0">Class<y:LabelModel><y:SmartNodeLabelModel distance="4.0"/></y:LabelModel><y:ModelParameter><y:SmartNodeLabelModelParameter labelRatioX="0.0" labelRatioY="0.0" nodeRatioX="0.0" nodeRatioY="0.0" offsetX="0.0" offsetY="0.0" upX="0.0" upY="-1.0"/></y:ModelParameter></y:NodeLabel>
          <y:UML clipContent="true" constraint="" hasDetailsColor="false" omitDetails="false" stereotype="" use3DEffect="true">
            <y:AttributeLabel xml:space="preserve"/>
            <y:MethodLabel xml:space="preserve"/>
          </y:UML>
        </y:UMLClassNode>
      </data>
    </node>
    <edge id="n2::e0" source="n2::n4" target="n2::n0">
      <data key="d8" xml:space="preserve"/>
      <data key="d10">
        <y:PolyLineEdge>
          <y:Path sx="0.0" sy="0.0" tx="0.0" ty="0.0">
            <y:Point x="-753.5438104265404" y="598.0"/>
            <y:Point x="-1020.0438104265404" y="598.0"/>
          </y:Path>
          <y:LineStyle color="#000000" type="line" width="1.0"/>
          <y:Arrows source="none" target="white_delta"/>
          <y:BendStyle smoothed="false"/>
        </y:PolyLineEdge>
      </data>
    </edge>
    <edge id="e0" source="n0" target="n2::n0">
      <data key="d10">
        <y:PolyLineEdge>
          <y:Path sx="0.0" sy="0.0" tx="0.0" ty="0.0"/>
          <y:LineStyle color="#000000" type="line" width="1.0"/>
          <y:Arrows source="none" target="standard"/>
          <y:BendStyle smoothed="false"/>
        </y:PolyLineEdge>
      </data>
    </edge>
    <edge id="n2::e1" source="n2::n5" target="n2::n0">
      <data key="d8" xml:space="preserve"/>
      <data key="d10">
        <y:PolyLineEdge>
          <y:Path sx="0.0" sy="0.0" tx="0.0" ty="0.0">
            <y:Point x="-1290.5438104265404" y="597.8"/>
            <y:Point x="-1020.0438104265404" y="597.8"/>
          </y:Path>
          <y:LineStyle color="#000000" type="line" width="1.0"/>
          <y:Arrows source="none" target="white_delta"/>
          <y:BendStyle smoothed="false"/>
        </y:PolyLineEdge>
      </data>
    </edge>
    <edge id="n2::e2" source="n2::n1" target="n2::n5">
      <data key="d8" xml:space="preserve"/>
      <data key="d10">
        <y:PolyLineEdge>
          <y:Path sx="0.0" sy="0.0" tx="0.0" ty="63.400676171217334">
            <y:Point x="-1619.5438104265404" y="1122.8557544"/>
            <y:Point x="-1290.5438104265404" y="1122.8557544"/>
          </y:Path>
          <y:LineStyle color="#000000" type="line" width="1.0"/>
          <y:Arrows source="none" target="white_delta"/>
          <y:BendStyle smoothed="false"/>
        </y:PolyLineEdge>
      </data>
    </edge>
    <edge id="n2::e3" source="n2::n2" target="n2::n5">
      <data key="d8" xml:space="preserve"/>
      <data key="d10">
        <y:PolyLineEdge>
          <y:Path sx="0.0" sy="0.0" tx="0.0" ty="0.0"/>
          <y:LineStyle color="#000000" type="line" width="1.0"/>
          <y:Arrows source="none" target="white_delta"/>
          <y:BendStyle smoothed="false"/>
        </y:PolyLineEdge>
      </data>
    </edge>
    <edge id="n2::e4" source="n2::n3" target="n2::n5">
      <data key="d8" xml:space="preserve"/>
      <data key="d10">
        <y:PolyLineEdge>
          <y:Path sx="0.0" sy="0.0" tx="0.0" ty="63.400676171217334">
            <y:Point x="-961.5438104265404" y="1122.8557544"/>
            <y:Point x="-1290.5438104265404" y="1122.8557544"/>
          </y:Path>
          <y:LineStyle color="#000000" type="line" width="1.0"/>
          <y:Arrows source="none" target="white_delta"/>
          <y:BendStyle smoothed="false"/>
        </y:PolyLineEdge>
      </data>
    </edge>
    <edge id="n3::e0" source="n3::n2" target="n3::n3">
      <data key="d8" xml:space="preserve"/>
      <data key="d10">
        <y:PolyLineEdge>
          <y:Path sx="0.0" sy="0.0" tx="0.0" ty="0.0">
            <y:Point x="2684.4241186586446" y="916.6001981919565"/>
            <y:Point x="2802.928740326742" y="916.6001981919565"/>
          </y:Path>
          <y:LineStyle color="#000000" type="line" width="1.0"/>
          <y:Arrows source="none" target="white_delta"/>
          <y:BendStyle smoothed="false"/>
        </y:PolyLineEdge>
      </data>
    </edge>
    <edge id="n3::e1" source="n3::n4" target="n3::n3">
      <data key="d8" xml:space="preserve"/>
      <data key="d10">
        <y:PolyLineEdge>
          <y:Path sx="0.0" sy="0.0" tx="0.0" ty="0.0">
            <y:Point x="2942.94002579536" y="916.6001981919565"/>
            <y:Point x="2802.928740326742" y="916.6001981919565"/>
          </y:Path>
          <y:LineStyle color="#000000" type="line" width="1.0"/>
          <y:Arrows source="none" target="white_delta"/>
          <y:BendStyle smoothed="false"/>
        </y:PolyLineEdge>
      </data>
    </edge>
    <edge id="n3::e2" source="n3::n3" target="n3::n0">
      <data key="d8" xml:space="preserve"/>
      <data key="d10">
        <y:PolyLineEdge>
          <y:Path sx="0.0" sy="0.0" tx="0.0" ty="0.0"/>
          <y:LineStyle color="#000000" type="line" width="1.0"/>
          <y:Arrows source="none" target="white_delta"/>
          <y:BendStyle smoothed="false"/>
        </y:PolyLineEdge>
      </data>
    </edge>
    <edge id="n3::e3" source="n3::n1" target="n3::n0">
      <data key="d8" xml:space="preserve"/>
      <data key="d10">
        <y:PolyLineEdge>
          <y:Path sx="0.0" sy="0.0" tx="0.0" ty="0.0">
            <y:Point x="2516.267692247082" y="591.9508994314986"/>
            <y:Point x="2802.928740326742" y="591.9508994314986"/>
          </y:Path>
          <y:LineStyle color="#000000" type="line" width="1.0"/>
          <y:Arrows source="none" target="white_delta"/>
          <y:BendStyle smoothed="false"/>
        </y:PolyLineEdge>
      </data>
    </edge>
    <edge id="n3::e4" source="n3::n5" target="n3::n0">
      <data key="d8" xml:space="preserve"/>
      <data key="d10">
        <y:PolyLineEdge>
          <y:Path sx="0.0" sy="0.0" tx="0.0" ty="0.0">
            <y:Point x="3069.0704418887753" y="591.9508994314986"/>
            <y:Point x="2802.928740326742" y="591.9508994314986"/>
          </y:Path>
          <y:LineStyle color="#000000" type="line" width="1.0"/>
          <y:Arrows source="none" target="white_delta"/>
          <y:BendStyle smoothed="false"/>
        </y:PolyLineEdge>
      </data>
    </edge>
    <edge id="n3::e5" source="n3::n6" target="n3::n0">
      <data key="d8" xml:space="preserve"/>
      <data key="d10">
        <y:PolyLineEdge>
          <y:Path sx="0.0" sy="0.0" tx="0.0" ty="0.0">
            <y:Point x="3335.212143450809" y="591.9508994314986"/>
            <y:Point x="2802.928740326742" y="591.9508994314986"/>
          </y:Path>
          <y:LineStyle color="#000000" type="line" width="1.0"/>
          <y:Arrows source="none" target="white_delta"/>
          <y:BendStyle smoothed="false"/>
        </y:PolyLineEdge>
      </data>
    </edge>
    <edge id="n3::e6" source="n3::n7" target="n3::n0">
      <data key="d8" xml:space="preserve"/>
      <data key="d10">
        <y:PolyLineEdge>
          <y:Path sx="0.0" sy="0.0" tx="0.0" ty="0.0">
            <y:Point x="3595.6322397668846" y="591.9508994314986"/>
            <y:Point x="2802.928740326742" y="591.9508994314986"/>
          </y:Path>
          <y:LineStyle color="#000000" type="line" width="1.0"/>
          <y:Arrows source="none" target="white_delta"/>
          <y:BendStyle smoothed="false"/>
        </y:PolyLineEdge>
      </data>
    </edge>
    <edge id="n3::e7" source="n3::n8" target="n3::n0">
      <data key="d8" xml:space="preserve"/>
      <data key="d10">
        <y:PolyLineEdge>
          <y:Path sx="0.0" sy="0.0" tx="0.0" ty="0.0">
            <y:Point x="3829.811384319376" y="591.9508994314986"/>
            <y:Point x="2802.928740326742" y="591.9508994314986"/>
          </y:Path>
          <y:LineStyle color="#000000" type="line" width="1.0"/>
          <y:Arrows source="none" target="white_delta"/>
          <y:BendStyle smoothed="false"/>
        </y:PolyLineEdge>
      </data>
    </edge>
    <edge id="n3::e8" source="n3::n9" target="n3::n0">
      <data key="d8" xml:space="preserve"/>
      <data key="d10">
        <y:PolyLineEdge>
          <y:Path sx="0.0" sy="0.0" tx="0.0" ty="0.0">
            <y:Point x="4063.9905288718674" y="591.9508994314986"/>
            <y:Point x="2802.928740326742" y="591.9508994314986"/>
          </y:Path>
          <y:LineStyle color="#000000" type="line" width="1.0"/>
          <y:Arrows source="none" target="white_delta"/>
          <y:BendStyle smoothed="false"/>
        </y:PolyLineEdge>
      </data>
    </edge>
    <edge id="n3::e9" source="n3::n10" target="n3::n0">
      <data key="d8" xml:space="preserve"/>
      <data key="d10">
        <y:PolyLineEdge>
          <y:Path sx="0.0" sy="0.0" tx="0.0" ty="0.0">
            <y:Point x="4298.169673424359" y="591.9508994314986"/>
            <y:Point x="2802.928740326742" y="591.9508994314986"/>
          </y:Path>
          <y:LineStyle color="#000000" type="line" width="1.0"/>
          <y:Arrows source="none" target="white_delta"/>
          <y:BendStyle smoothed="false"/>
        </y:PolyLineEdge>
      </data>
    </edge>
    <edge id="n3::e10" source="n3::n11" target="n3::n0">
      <data key="d8" xml:space="preserve"/>
      <data key="d10">
        <y:PolyLineEdge>
          <y:Path sx="0.0" sy="0.0" tx="0.0" ty="0.0">
            <y:Point x="2229.6066441674216" y="591.9508994314986"/>
            <y:Point x="2802.928740326742" y="591.9508994314986"/>
          </y:Path>
          <y:LineStyle color="#000000" type="line" width="1.0"/>
          <y:Arrows source="none" target="white_delta"/>
          <y:BendStyle smoothed="false"/>
        </y:PolyLineEdge>
      </data>
    </edge>
    <edge id="n1::e0" source="n1::n1" target="n1::n0">
      <data key="d8" xml:space="preserve"/>
      <data key="d10">
        <y:PolyLineEdge>
          <y:Path sx="0.0" sy="0.0" tx="0.0" ty="0.0"/>
          <y:LineStyle color="#000000" type="line" width="1.0"/>
          <y:Arrows source="white_diamond" target="none"/>
          <y:EdgeLabel alignment="center" configuration="AutoFlippingLabel" distance="2.0" fontFamily="Dialog" fontSize="12" fontStyle="plain" hasBackgroundColor="false" hasLineColor="false" height="18.701171875" horizontalTextPosition="center" iconTextGap="4" modelName="custom" preferredPlacement="anywhere" ratio="0.5" textColor="#000000" verticalTextPosition="bottom" visible="true" width="8.669921875" x="-13.676748740677795" xml:space="preserve" y="20.649413043244955">*<y:LabelModel><y:SmartEdgeLabelModel autoRotationEnabled="false" defaultAngle="0.0" defaultDistance="10.0"/></y:LabelModel><y:ModelParameter><y:SmartEdgeLabelModelParameter angle="0.0" distance="30.0" distanceToCenter="true" position="left" ratio="0.0" segment="0"/></y:ModelParameter><y:PreferredPlacementDescriptor angle="0.0" angleOffsetOnRightSide="0" angleReference="absolute" angleRotationOnRightSide="co" distance="-1.0" frozen="true" placement="anywhere" side="anywhere" sideReference="relative_to_edge_flow"/></y:EdgeLabel>
          <y:BendStyle smoothed="false"/>
        </y:PolyLineEdge>
      </data>
    </edge>
    <edge id="e1" source="n5" target="n4">
      <data key="d8" xml:space="preserve"/>
      <data key="d10">
        <y:PolyLineEdge>
          <y:Path sx="0.0" sy="0.0" tx="0.0" ty="0.0"/>
          <y:LineStyle color="#000000" type="line" width="1.0"/>
          <y:Arrows source="diamond" target="none"/>
          <y:BendStyle smoothed="false"/>
        </y:PolyLineEdge>
      </data>
    </edge>
  </graph>
  <data key="d7">
    <y:Resources/>
  </data>
</graphml>
